<?xml version="1.0" encoding="UTF-8" standalone="no"?>
<svg
   xml:space="preserve"
   width="30"
   height="30"
   version="1.1"
   id="svg16531"
   sodipodi:docname="apple-icon.svg"
   inkscape:version="1.2.1 (9c6d41e410, 2022-07-14)"
   xmlns:inkscape="http://www.inkscape.org/namespaces/inkscape"
   xmlns:sodipodi="http://sodipodi.sourceforge.net/DTD/sodipodi-0.dtd"
   xmlns="http://www.w3.org/2000/svg"
   xmlns:svg="http://www.w3.org/2000/svg"><defs
   id="defs16535" /><sodipodi:namedview
   id="namedview16533"
   pagecolor="#ffffff"
   bordercolor="#000000"
   borderopacity="0.25"
   inkscape:showpageshadow="2"
   inkscape:pageopacity="0.0"
   inkscape:pagecheckerboard="0"
   inkscape:deskcolor="#d1d1d1"
   showgrid="false"
   inkscape:zoom="32.864"
   inkscape:cx="24.251461"
   inkscape:cy="20.143622"
   inkscape:window-width="3840"
   inkscape:window-height="2087"
   inkscape:window-x="0"
   inkscape:window-y="0"
   inkscape:window-maximized="1"
   inkscape:current-layer="svg16531" />
  <path
   d="m 26.323064,10.267028 c -0.174016,0.135013 -3.246324,1.866186 -3.246324,5.715571 0,4.452445 3.909392,6.027602 4.026402,6.066606 -0.01801,0.09601 -0.621061,2.157217 -2.061205,4.257426 C 23.757808,28.154816 22.416674,30 20.37647,30 c -2.040204,0 -2.565255,-1.185118 -4.920491,-1.185118 -2.295229,0 -3.11131,1.224123 -4.977497,1.224123 -1.8661867,0 -3.1683168,-1.710171 -4.6654666,-3.810381 C 4.0788422,23.762378 2.677702,19.930995 2.677702,16.29463 c 0,-5.832583 3.7923791,-8.9258923 7.524752,-8.9258923 1.983199,0 3.636364,1.3021303 4.881488,1.3021303 1.185119,0 3.033301,-1.380138 5.289528,-1.380138 0.855084,0 3.927393,0.078007 5.949594,2.976298 z M 19.302363,4.8214831 c 0.933093,-1.1071107 1.59316,-2.6432642 1.59316,-4.17941772 0,-0.21302127 -0.01801,-0.42904299 -0.05701,-0.60306038 -1.518153,0.05700545 -3.324333,1.0111012 -4.413442,2.2742274 -0.855084,0.9720972 -1.653164,2.5082507 -1.653164,4.0654064 0,0.2340235 0.039,0.4680468 0.05701,0.5430542 0.09601,0.018002 0.252024,0.039004 0.408041,0.039004 1.362136,0 3.075308,-0.9120913 4.065406,-2.1392141 z"
   id="path16529"
   style="fill:currentColor;fill-opacity:1;stroke-width:0.030003" />
</svg>
