<?xml version="1.0" encoding="UTF-8" standalone="no"?>
<!-- Created with Inkscape (http://www.inkscape.org/) -->

<svg
   width="22"
   height="22"
   viewBox="0 0 22 22"
   version="1.1"
   id="svg9498"
   inkscape:version="1.2.1 (9c6d41e410, 2022-07-14)"
   sodipodi:docname="drawing-assistants.svg"
   xmlns:inkscape="http://www.inkscape.org/namespaces/inkscape"
   xmlns:sodipodi="http://sodipodi.sourceforge.net/DTD/sodipodi-0.dtd"
   xmlns="http://www.w3.org/2000/svg"
   xmlns:svg="http://www.w3.org/2000/svg">
  <sodipodi:namedview
     id="namedview9500"
     pagecolor="#ffffff"
     bordercolor="#000000"
     borderopacity="0.25"
     inkscape:showpageshadow="2"
     inkscape:pageopacity="0.0"
     inkscape:pagecheckerboard="0"
     inkscape:deskcolor="#d1d1d1"
     inkscape:document-units="mm"
     showgrid="true"
     inkscape:zoom="35.2"
     inkscape:cx="11.875"
     inkscape:cy="19.84375"
     inkscape:window-width="1444"
     inkscape:window-height="1236"
     inkscape:window-x="0"
     inkscape:window-y="0"
     inkscape:window-maximized="0"
     inkscape:current-layer="layer1">
    <inkscape:grid
       type="xygrid"
       id="grid9865"
       spacingx="0.5"
       spacingy="0.5"
       empspacing="2" />
  </sodipodi:namedview>
  <defs
     id="defs9495" />
  <g
     inkscape:label="Layer 1"
     inkscape:groupmode="layer"
     id="layer1">
    <path
       id="rect9867"
       style="stroke-opacity:1;stroke-width:1;stroke:currentColor;fill:none;stroke-dasharray:none"
       d="M 1.5,2 20,20.5 H 1.5 Z"
       sodipodi:nodetypes="cccc" />
    <path
       id="rect9867-5"
       style="fill:currentColor;fill-opacity:1;stroke:none;stroke-width:0.488432;stroke-opacity:1"
       d="m 4,8 9,9 H 4 Z"
       sodipodi:nodetypes="cccc" />
    <rect
       style="fill:currentColor;fill-opacity:1;stroke:none;stroke-width:1.63299;stroke-dasharray:none;stroke-opacity:1"
       id="rect10377"
       width="1"
       height="2"
       x="3"
       y="18" />
    <rect
       style="fill:currentColor;fill-opacity:1;stroke:none;stroke-width:1.63299;stroke-dasharray:none;stroke-opacity:1"
       id="rect10377-9"
       width="1"
       height="2"
       x="6"
       y="18" />
    <rect
       style="fill:currentColor;fill-opacity:1;stroke:none;stroke-width:1.63299;stroke-dasharray:none;stroke-opacity:1"
       id="rect10377-9-3"
       width="1"
       height="2"
       x="9"
       y="18" />
    <rect
       style="fill:currentColor;fill-opacity:1;stroke:none;stroke-width:1.63299;stroke-dasharray:none;stroke-opacity:1"
       id="rect10377-9-3-6"
       width="1"
       height="2"
       x="12"
       y="18" />
    <rect
       style="fill:currentColor;fill-opacity:1;stroke:none;stroke-width:1.63299;stroke-dasharray:none;stroke-opacity:1"
       id="rect10377-9-3-6-0"
       width="1"
       height="2"
       x="15"
       y="18" />
  </g>
</svg>
